<?xml version="1.0" encoding="UTF-8"?>
<svg width="1024px" height="74px" viewBox="0 0 1024 74" version="1.1" xmlns="http://www.w3.org/2000/svg" xmlns:xlink="http://www.w3.org/1999/xlink">
    <!-- Generator: Sketch 48.1 (47250) - http://www.bohemiancoding.com/sketch -->
    <title>dashboard-bar-tablet-1024</title>
    <desc>Created with Sketch.</desc>
    <defs></defs>
    <g id="dashboard-bar-tablet-copy" stroke="none" stroke-width="1" fill="none" fill-rule="evenodd">
        <g id="dashboard-bar-tablet-1024" fill="#018485">
            <g id="App-Bar">
                <polygon points="0 0 1025 0 1025 36.7464208 0 73.4928416"></polygon>
            </g>
        </g>
    </g>
</svg>