<?xml version="1.0" encoding="UTF-8"?>
<svg width="32px" height="32px" viewBox="0 0 32 32" version="1.1" xmlns="http://www.w3.org/2000/svg" xmlns:xlink="http://www.w3.org/1999/xlink">
    <!-- Generator: Sketch 48.2 (47327) - http://www.bohemiancoding.com/sketch -->
    <title>icon/icon_miscellaneous</title>
    <desc>Created with Sketch.</desc>
    <defs>
        <path d="M8.919,11.1631 C8.993,11.1591 9.078,11.1561 9.175,11.1561 L10.891,11.1561 L10.891,20.8431 L8.909,20.8431 L8.909,15.2721 C8.909,15.1431 8.913,15.0041 8.919,14.8531 C8.927,14.7021 8.938,14.5491 8.956,14.3941 L6.384,19.3741 C6.303,19.5291 6.195,19.6461 6.061,19.7271 C5.926,19.8061 5.771,19.8461 5.599,19.8461 L5.293,19.8461 C5.12,19.8461 4.966,19.8061 4.831,19.7271 C4.695,19.6461 4.588,19.5291 4.508,19.3741 L1.935,14.3811 C1.948,14.5401 1.96,14.6971 1.968,14.8491 C1.977,15.0021 1.981,15.1431 1.981,15.2721 L1.981,20.8431 L0,20.8431 L0,11.1561 L1.715,11.1561 C1.814,11.1561 1.898,11.1591 1.972,11.1631 C2.045,11.1671 2.11,11.1811 2.168,11.2021 C2.225,11.2251 2.278,11.2591 2.324,11.3061 C2.371,11.3521 2.416,11.4181 2.461,11.5021 L4.954,16.4151 C5.042,16.5841 5.127,16.7591 5.209,16.9411 C5.292,17.1221 5.371,17.3091 5.445,17.4991 C5.521,17.3041 5.6,17.1131 5.681,16.9271 C5.763,16.7411 5.851,16.5641 5.944,16.3951 L8.431,11.5021 C8.475,11.4181 8.521,11.3521 8.567,11.3061 C8.614,11.2591 8.666,11.2251 8.723,11.2021 C8.781,11.1811 8.846,11.1671 8.919,11.1631 Z M12.765,20.843 L12.765,11.156 L15.026,11.156 L15.026,20.843 L12.765,20.843 Z M22.2704,15.9764 C22.4714,16.1764 22.6344,16.4184 22.7584,16.7044 C22.8824,16.9904 22.9444,17.3354 22.9444,17.7384 C22.9444,18.1864 22.8664,18.6054 22.7124,18.9954 C22.5574,19.3854 22.3324,19.7254 22.0374,20.0154 C21.7424,20.3064 21.3784,20.5344 20.9474,20.7004 C20.5154,20.8664 20.0234,20.9504 19.4744,20.9504 C19.1724,20.9504 18.8664,20.9184 18.5534,20.8564 C18.2404,20.7944 17.9384,20.7074 17.6454,20.5934 C17.3534,20.4804 17.0784,20.3474 16.8214,20.1924 C16.5644,20.0364 16.3404,19.8644 16.1494,19.6734 L16.8144,18.6224 C16.8684,18.5474 16.9374,18.4844 17.0244,18.4334 C17.1104,18.3824 17.2054,18.3564 17.3064,18.3564 C17.4394,18.3564 17.5744,18.3984 17.7094,18.4834 C17.8444,18.5674 17.9974,18.6604 18.1684,18.7624 C18.3384,18.8644 18.5344,18.9574 18.7554,19.0414 C18.9774,19.1264 19.2394,19.1674 19.5404,19.1674 C19.9484,19.1674 20.2654,19.0784 20.4914,18.8984 C20.7174,18.7194 20.8304,18.4344 20.8304,18.0444 C20.8304,17.8184 20.7684,17.6344 20.6444,17.4924 C20.5204,17.3504 20.3574,17.2334 20.1554,17.1404 C19.9534,17.0474 19.7244,16.9654 19.4674,16.8944 C19.2104,16.8234 18.9474,16.7444 18.6764,16.6584 C18.4064,16.5714 18.1424,16.4654 17.8854,16.3394 C17.6284,16.2124 17.3984,16.0464 17.1974,15.8404 C16.9954,15.6344 16.8324,15.3774 16.7084,15.0694 C16.5834,14.7614 16.5224,14.3804 16.5224,13.9284 C16.5224,13.5654 16.5954,13.2104 16.7414,12.8644 C16.8874,12.5194 17.1034,12.2114 17.3864,11.9404 C17.6704,11.6704 18.0174,11.4544 18.4294,11.2924 C18.8424,11.1304 19.3154,11.0504 19.8464,11.0504 C20.1434,11.0504 20.4334,11.0734 20.7144,11.1194 C20.9954,11.1664 21.2634,11.2354 21.5154,11.3254 C21.7684,11.4164 22.0044,11.5254 22.2234,11.6514 C22.4424,11.7774 22.6394,11.9214 22.8114,12.0804 L22.2534,13.1244 C22.1874,13.2304 22.1164,13.3104 22.0444,13.3634 C21.9704,13.4164 21.8764,13.4434 21.7614,13.4434 C21.6594,13.4434 21.5494,13.4114 21.4314,13.3464 C21.3144,13.2834 21.1814,13.2104 21.0334,13.1314 C20.8854,13.0504 20.7154,12.9794 20.5254,12.9154 C20.3344,12.8504 20.1174,12.8184 19.8734,12.8184 C19.4514,12.8184 19.1384,12.9084 18.9324,13.0874 C18.7264,13.2674 18.6234,13.5094 18.6234,13.8164 C18.6234,14.0104 18.6854,14.1724 18.8094,14.3014 C18.9334,14.4294 19.0964,14.5404 19.2974,14.6334 C19.5004,14.7264 19.7304,14.8124 19.9894,14.8894 C20.2494,14.9674 20.5144,15.0534 20.7834,15.1484 C21.0544,15.2444 21.3194,15.3554 21.5794,15.4844 C21.8374,15.6134 22.0684,15.7774 22.2704,15.9764 Z M31.1083,18.4697 L32.0003,19.4077 C31.6093,19.9167 31.1213,20.3017 30.5333,20.5607 C29.9463,20.8197 29.2513,20.9497 28.4493,20.9497 C27.7133,20.9497 27.0543,20.8247 26.4713,20.5737 C25.8883,20.3237 25.3943,19.9777 24.9883,19.5367 C24.5833,19.0957 24.2713,18.5727 24.0553,17.9677 C23.8373,17.3627 23.7293,16.7057 23.7293,15.9967 C23.7293,15.2737 23.8463,14.6107 24.0813,14.0057 C24.3153,13.4007 24.6473,12.8787 25.0723,12.4397 C25.4973,12.0007 26.0073,11.6597 26.6013,11.4157 C27.1953,11.1717 27.8493,11.0497 28.5623,11.0497 C28.9253,11.0497 29.2683,11.0817 29.5903,11.1467 C29.9113,11.2107 30.2113,11.2997 30.4903,11.4117 C30.7693,11.5247 31.0273,11.6617 31.2623,11.8207 C31.4963,11.9807 31.7043,12.1537 31.8863,12.3397 L31.1293,13.3567 C31.0803,13.4197 31.0223,13.4757 30.9553,13.5267 C30.8893,13.5777 30.7963,13.6027 30.6763,13.6027 C30.5963,13.6027 30.5213,13.5857 30.4503,13.5497 C30.3803,13.5147 30.3043,13.4717 30.2243,13.4197 C30.1453,13.3687 30.0573,13.3137 29.9623,13.2537 C29.8673,13.1947 29.7533,13.1387 29.6223,13.0877 C29.4913,13.0367 29.3393,12.9937 29.1633,12.9577 C28.9893,12.9227 28.7843,12.9047 28.5493,12.9047 C28.1763,12.9047 27.8373,12.9737 27.5283,13.1107 C27.2203,13.2487 26.9543,13.4487 26.7313,13.7127 C26.5073,13.9767 26.3343,14.3007 26.2113,14.6837 C26.0903,15.0667 26.0283,15.5047 26.0283,15.9967 C26.0283,16.4927 26.0973,16.9337 26.2323,17.3197 C26.3673,17.7047 26.5513,18.0297 26.7843,18.2937 C27.0163,18.5577 27.2883,18.7577 27.5983,18.8957 C27.9083,19.0327 28.2403,19.1017 28.5953,19.1017 C28.7993,19.1017 28.9853,19.0917 29.1543,19.0717 C29.3223,19.0517 29.4793,19.0187 29.6253,18.9717 C29.7733,18.9257 29.9093,18.8627 30.0383,18.7857 C30.1673,18.7087 30.2973,18.6097 30.4313,18.4897 C30.4843,18.4457 30.5413,18.4087 30.6043,18.3797 C30.6653,18.3507 30.7293,18.3367 30.7963,18.3367 C30.8493,18.3367 30.9023,18.3467 30.9553,18.3667 C31.0083,18.3867 31.0593,18.4207 31.1083,18.4697 Z" id="path-1"></path>
    </defs>
    <g id="Page-1" stroke="none" stroke-width="1" fill="none" fill-rule="evenodd">
        <g id="icon/icon_miscellaneous">
            <mask id="mask-2" fill="white">
                <use xlink:href="#path-1"></use>
            </mask>
            <use id="Combined-Shape" fill="#231F20" xlink:href="#path-1"></use>
        </g>
    </g>
</svg>