<?xml version="1.0" encoding="UTF-8"?>
<svg width="32px" height="32px" viewBox="0 0 32 32" version="1.1" xmlns="http://www.w3.org/2000/svg" xmlns:xlink="http://www.w3.org/1999/xlink">
    <!-- Generator: Sketch 48.2 (47327) - http://www.bohemiancoding.com/sketch -->
    <title>icon/icon_games</title>
    <desc>Created with Sketch.</desc>
    <defs>
        <path d="M16,5 C8.71101959,5 2.33204547,7.35531331 2.33204547,7.35531331 L1.65400073,7.60511927 L1.58262759,8.28316401 L0.0481052878,19.9883574 C-0.366750746,23.2269138 1.94841546,26.2468891 5.1869707,26.6617451 C8.20248549,27.0498368 10.9057434,25.0157026 11.6105525,22.1295514 L20.3894475,22.1295514 C21.0987183,25.0157026 23.7975145,27.0498368 26.8130293,26.6617451 C30.0515856,26.2468891 32.3667507,23.2269138 31.9518947,19.9883574 L30.4173724,8.28316401 L30.3459993,7.60511927 L29.6679545,7.35531331 C29.6679545,7.35531331 23.2889816,5 16,5 Z M16,7.28394018 C22.2629922,7.28394018 27.4286231,9.02366081 28.2761785,9.3180744 L29.6679545,20.3095365 C29.9266827,22.3213669 28.5393672,24.119078 26.5275367,24.377805 C24.5157064,24.6365331 22.6823099,23.2492176 22.4235818,21.2373873 L22.3878952,20.844835 L22.2451489,19.8456112 L9.75485108,19.8456112 L9.61210477,20.844835 L9.57641823,21.2373873 C9.31769123,23.2492176 7.48429363,24.6365331 5.47246322,24.377805 C3.46063281,24.119078 2.07331844,22.3213669 2.33204547,20.3095365 L3.72382152,9.3180744 C4.57137801,9.02366081 9.73700778,7.28394018 16,7.28394018 Z M8.00620933,10.7098505 L8.00620933,12.9937907 L5.72226918,12.9937907 L5.72226918,15.2777308 L8.00620933,15.2777308 L8.00620933,17.561671 L10.2901496,17.561671 L10.2901496,15.2777308 L12.5740897,15.2777308 L12.5740897,12.9937907 L10.2901496,12.9937907 L10.2901496,10.7098505 L8.00620933,10.7098505 Z M22.8518205,10.7098505 C22.2228451,10.7098505 21.7098504,11.2228451 21.7098504,11.8518205 C21.7098504,12.480796 22.2228451,12.9937907 22.8518205,12.9937907 C23.4807959,12.9937907 23.9937907,12.480796 23.9937907,11.8518205 C23.9937907,11.2228451 23.4807959,10.7098505 22.8518205,10.7098505 Z M20.5678804,12.9937907 C19.9389049,12.9937907 19.4259103,13.5067853 19.4259103,14.1357607 C19.4259103,14.7647362 19.9389049,15.2777308 20.5678804,15.2777308 C21.1968558,15.2777308 21.7098504,14.7647362 21.7098504,14.1357607 C21.7098504,13.5067853 21.1968558,12.9937907 20.5678804,12.9937907 Z M25.1357607,12.9937907 C24.5067853,12.9937907 23.9937907,13.5067853 23.9937907,14.1357607 C23.9937907,14.7647362 24.5067853,15.2777308 25.1357607,15.2777308 C25.7647362,15.2777308 26.2777308,14.7647362 26.2777308,14.1357607 C26.2777308,13.5067853 25.7647362,12.9937907 25.1357607,12.9937907 Z M22.8518205,15.2777308 C22.2228451,15.2777308 21.7098504,15.7907255 21.7098504,16.4197009 C21.7098504,17.0486763 22.2228451,17.561671 22.8518205,17.561671 C23.4807959,17.561671 23.9937907,17.0486763 23.9937907,16.4197009 C23.9937907,15.7907255 23.4807959,15.2777308 22.8518205,15.2777308 Z" id="path-1"></path>
    </defs>
    <g id="Page-1" stroke="none" stroke-width="1" fill="none" fill-rule="evenodd">
        <g id="icon/icon_games">
            <mask id="mask-2" fill="white">
                <use xlink:href="#path-1"></use>
            </mask>
            <use id="Shape" fill="#000000" fill-rule="nonzero" xlink:href="#path-1"></use>
        </g>
    </g>
</svg>