<?xml version="1.0" encoding="UTF-8"?>
<svg width="32px" height="32px" viewBox="0 0 32 32" version="1.1" xmlns="http://www.w3.org/2000/svg" xmlns:xlink="http://www.w3.org/1999/xlink">
    <!-- Generator: Sketch 48.2 (47327) - http://www.bohemiancoding.com/sketch -->
    <title>icon/icon_services</title>
    <desc>Created with Sketch.</desc>
    <defs>
        <path d="M17.4795,2.8525 L16.8285,2.8525 C16.2675,2.8525 15.7385,3.0715 15.3405,3.4695 C14.9415,3.8675 14.7225,4.3965 14.7225,4.9585 L14.7225,7.7835 L8.8095,7.7835 C8.5855,7.7835 8.3665,7.8475 8.1735,7.9675 L7.4835,8.4035 L7.4835,2.1065 C7.4835,1.9125 7.6405,1.7545 7.8345,1.7545 L17.1275,1.7545 C17.3215,1.7545 17.4795,1.9125 17.4795,2.1065 L17.4795,2.8525 Z M16.4775,10.2845 L16.4775,4.9585 C16.4775,4.7645 16.6355,4.6065 16.8295,4.6065 L24.1655,4.6065 C24.3595,4.6065 24.5165,4.7645 24.5165,4.9585 L24.5165,11.2555 L23.8245,10.8195 C23.6335,10.6995 23.4145,10.6355 23.1905,10.6355 L16.8295,10.6355 C16.6355,10.6355 16.4775,10.4785 16.4775,10.2845 Z M6.2675,10.6065 C5.9345,10.4235 5.7285,10.0735 5.7285,9.6935 L5.7285,2.1065 C5.7285,0.9455 6.6735,0.0005 7.8345,0.0005 L17.1275,0.0005 C18.2895,0.0005 19.2345,0.9455 19.2345,2.1065 L19.2345,2.8525 L24.1645,2.8525 C25.3265,2.8525 26.2715,3.7975 26.2715,4.9585 L26.2715,12.5455 C26.2715,12.9245 26.0655,13.2745 25.7325,13.4585 C25.5795,13.5425 25.4045,13.5885 25.2295,13.5885 C25.0335,13.5885 24.8415,13.5325 24.6745,13.4285 L23.0285,12.3915 L16.8295,12.3915 C15.6675,12.3915 14.7225,11.4465 14.7225,10.2845 L14.7225,9.5385 L8.9715,9.5385 L7.3265,10.5755 C7.0115,10.7735 6.5965,10.7855 6.2675,10.6065 Z M27.4488,24.6085 C30.2248,25.9425 31.9998,28.7285 31.9998,31.8025 L31.9998,32.0005 L30.0468,32.0005 L30.0468,31.8025 C30.0468,28.4755 27.3418,25.7695 24.0148,25.7695 C20.8778,25.7695 18.2378,28.2195 18.0038,31.3475 C18.0078,31.3825 18.0148,31.4425 18.0208,31.5025 C18.0308,31.6015 18.0418,31.7005 18.0418,31.8025 L18.0418,32.0005 L15.8818,32.0005 L15.8818,31.8025 C15.8818,28.0195 12.8038,24.9415 9.0208,24.9415 C5.2378,24.9415 2.1598,28.0195 2.1598,31.8025 L2.1598,32.0005 L-0.0002,32.0005 L-0.0002,31.8025 C-0.0002,28.3155 2.0228,25.1555 5.1808,23.6575 C3.5888,22.4485 2.6468,20.5715 2.6468,18.5675 C2.6468,15.0535 5.5058,12.1945 9.0208,12.1945 C12.5358,12.1945 15.3948,15.0535 15.3948,18.5675 C15.3948,20.5705 14.4538,22.4485 12.8598,23.6575 C14.7038,24.5325 16.1908,26.0035 17.1008,27.8485 C17.9128,26.4405 19.1298,25.3085 20.5818,24.6095 C19.1888,23.5375 18.3658,21.8845 18.3658,20.1205 C18.3658,17.0055 20.9008,14.4715 24.0148,14.4715 C27.1298,14.4715 29.6638,17.0055 29.6638,20.1205 C29.6638,21.8835 28.8408,23.5365 27.4488,24.6085 Z M13.2348,18.5675 C13.2348,16.2445 11.3448,14.3545 9.0208,14.3545 C6.6978,14.3545 4.8068,16.2445 4.8068,18.5675 C4.8068,20.8905 6.6978,22.7815 9.0208,22.7815 C11.3448,22.7815 13.2348,20.8905 13.2348,18.5675 Z M27.7108,20.1205 C27.7108,18.0825 26.0528,16.4245 24.0148,16.4245 C21.9758,16.4245 20.3178,18.0825 20.3178,20.1205 C20.3178,22.1595 21.9758,23.8175 24.0148,23.8175 C26.0528,23.8175 27.7108,22.1595 27.7108,20.1205 Z" id="path-1"></path>
    </defs>
    <g id="Page-1" stroke="none" stroke-width="1" fill="none" fill-rule="evenodd">
        <g id="icon/icon_services">
            <mask id="mask-2" fill="white">
                <use xlink:href="#path-1"></use>
            </mask>
            <use id="Combined-Shape" fill="#000000" xlink:href="#path-1"></use>
        </g>
    </g>
</svg>