<?xml version="1.0" encoding="UTF-8"?>
<svg width="32px" height="32px" viewBox="0 0 32 32" version="1.1" xmlns="http://www.w3.org/2000/svg" xmlns:xlink="http://www.w3.org/1999/xlink">
    <!-- Generator: Sketch 48.2 (47327) - http://www.bohemiancoding.com/sketch -->
    <title>icon/icon_settings</title>
    <desc>Created with Sketch.</desc>
    <defs>
        <path d="M30.7893602,19.0382704 C31.5051907,19.6033997 31.6918952,20.602818 31.2427084,21.4256123 L28.2795012,26.5512768 C27.8314578,27.3726897 26.850205,27.7223315 25.975608,27.3800503 L22.838316,26.1200937 C22.2967343,26.4916136 21.7486851,26.8127846 21.1877213,27.082709 L20.7123,30.397062 C20.5969401,31.3199415 19.8035385,32 18.8753387,32 L12.9218503,32 C11.9936505,32 11.2002489,31.3199415 11.0875716,30.4170541 L10.6096457,27.0841498 C10.0362761,26.8106291 9.48492849,26.4898187 8.95353743,26.1221353 L5.78705187,27.3932578 C4.94227361,27.7004499 3.9622791,27.3663608 3.53122477,26.5753797 L0.540943627,21.4015094 C0.105293802,20.602818 0.291998319,19.6033997 1.01188988,19.0350795 L3.66399487,16.9611585 C3.63463865,16.6245693 3.61952473,16.3100464 3.61952473,16 C3.61952473,15.689953 3.63463872,15.3754293 3.66399506,15.0388393 L1.00782878,12.9617296 C0.284790516,12.3909099 0.0832119421,11.3718182 0.554480589,10.5743877 L3.51768781,5.4487232 C3.9657312,4.62731033 4.94698398,4.27766854 5.821581,4.61994966 L8.95887298,5.87990627 C9.50045474,5.5083864 10.0485038,5.18721541 10.6094677,4.91729103 L11.084889,1.60293797 C11.2002489,0.680058481 11.9936505,0 12.9218503,0 L18.8753387,0 C19.8035385,0 20.5969401,0.680058481 20.7096174,1.58294591 L21.1875433,4.91585021 C21.7609129,5.18937094 22.3122605,5.51018127 22.8436516,5.87786473 L26.0101371,4.60674222 C26.8549154,4.29955013 27.8349099,4.63363917 28.2659642,5.42462027 L31.2562454,10.5984906 C31.6918952,11.397182 31.5051907,12.3966003 30.7852991,12.9649205 L28.1335597,15.0385556 C28.1629682,15.3733596 28.1776643,15.6831254 28.1776643,16 C28.1776643,16.3168753 28.1629681,16.6266417 28.1335595,16.9614466 L30.7893602,19.0382704 Z M26.3330852,25.4581086 L26.3407581,25.4448364 C26.3380809,25.4491951 26.3355227,25.4536182 26.3330852,25.4581086 Z M18.4996647,30.1001552 L18.5016223,30.0865032 C18.5008855,30.0910269 18.5002324,30.095578 18.4996647,30.1001552 Z M13.300207,30.1201473 C13.2995445,30.1148474 13.2987901,30.1095891 13.2979459,30.1043735 L13.300207,30.1201473 Z M5.47764072,25.4822116 C5.47390006,25.4753537 5.47003148,25.4686623 5.46603931,25.4621385 L5.47764072,25.4822116 Z M18.496982,1.87985273 C18.4976445,1.88515258 18.4983989,1.89041093 18.4992431,1.89562646 L18.496982,1.87985273 Z M29.1480409,20.5888852 L25.7710452,17.9481066 L25.8495401,17.3201473 C25.9142207,16.8027024 25.9451061,16.4011923 25.9451061,16 C25.9451061,15.5988077 25.9142207,15.1972976 25.8495401,14.6798527 L25.7710452,14.0518934 L26.2695643,13.6620562 L29.1478025,11.4113152 L26.4930634,6.81800923 L22.5101436,8.4175754 L22.0049639,8.02897562 C21.2926477,7.48104006 20.5439907,7.04515534 19.7469032,6.71848015 L19.1559065,6.47626839 L19.0652461,5.84403083 L18.5475422,2.23255814 L13.2498145,2.23255814 L12.6412825,6.47626839 L12.0502858,6.71848015 C11.2838686,7.03258556 10.5354678,7.47164732 9.7813852,8.0372093 L9.27869944,8.41422362 L8.695608,8.18005034 L5.30444582,6.81809409 L2.6493682,11.4112869 L6.02614378,14.0518934 L5.94764887,14.6798527 C5.88420247,15.1874239 5.85208287,15.6081907 5.85208287,16 C5.85208287,16.3918093 5.88420247,16.8125761 5.94764887,17.3201473 L6.02614378,17.9481066 L5.5276247,18.3379438 L2.64938649,20.5886848 L5.30412562,25.1819908 L9.28704539,23.5824246 L9.79222512,23.9710244 C10.5045413,24.5189599 11.2531983,24.9548447 12.0502858,25.2815198 L12.6412825,25.5237316 L12.7319429,26.1559692 L13.2496468,29.7674419 L18.5473745,29.7674419 L19.1559065,25.5237316 L19.7469032,25.2815198 C20.5133204,24.9674144 21.2617212,24.5283527 22.0158038,23.9627907 L22.5184896,23.5857764 L23.101581,23.8199497 L26.4927579,25.1819118 L29.1480409,20.5888852 Z M15.8985945,20.0930233 C18.1546487,20.0930233 19.9916178,18.2560542 19.9916178,16 C19.9916178,13.7439458 18.1546487,11.9069767 15.8985945,11.9069767 C13.6425403,11.9069767 11.8055712,13.7439458 11.8055712,16 C11.8055712,18.2560542 13.6425403,20.0930233 15.8985945,20.0930233 Z M15.8985945,22.3255814 C12.4095325,22.3255814 9.5730131,19.489062 9.5730131,16 C9.5730131,12.510938 12.4095325,9.6744186 15.8985945,9.6744186 C19.3876565,9.6744186 22.2241759,12.510938 22.2241759,16 C22.2241759,19.489062 19.3876565,22.3255814 15.8985945,22.3255814 Z" id="path-1"></path>
    </defs>
    <g id="Page-1" stroke="none" stroke-width="1" fill="none" fill-rule="evenodd">
        <g id="icon/icon_settings">
            <mask id="mask-2" fill="white">
                <use xlink:href="#path-1"></use>
            </mask>
            <use id="Shape" fill="#000000" fill-rule="nonzero" xlink:href="#path-1"></use>
        </g>
    </g>
</svg>