<?xml version="1.0" encoding="UTF-8"?>
<svg width="32px" height="32px" viewBox="0 0 32 32" version="1.1" xmlns="http://www.w3.org/2000/svg" xmlns:xlink="http://www.w3.org/1999/xlink">
    <!-- Generator: Sketch 48.2 (47327) - http://www.bohemiancoding.com/sketch -->
    <title>icon/icon_sucess</title>
    <desc>Created with Sketch.</desc>
    <defs>
        <path d="M18.9978571,0.00270739772 C18.3264769,0.0391392324 17.6550967,0.283751076 17.082601,0.710519428 L9.00521663,6.70610369 C8.89592246,6.69569535 8.78662829,6.66446769 8.67212862,6.66446769 C8.48476661,6.66446769 8.30781427,6.71651335 8.1308606,6.74773969 L8.2557686,5.87338365 C8.51599428,4.06742174 7.23048239,2.38636917 5.42452048,2.12614349 C3.61855857,1.86591914 1.93750599,3.1514297 1.67728032,4.95739161 L0.095112249,15.6994801 C-0.165112096,17.505442 0.0638859139,19.5612199 1.3441923,21.2787043 L4.34198443,25.2341245 C5.62229215,26.9516102 7.49070673,27.9925103 9.46321265,28.2735526 L10.9204727,29.6891767 C13.9390828,32.7077868 18.8521311,32.7077868 21.8707412,29.6891767 L30.9057536,20.6958003 C32.0923796,19.5091742 32.3630136,17.6043278 31.3221136,16.1574761 C31.0358658,15.7567299 30.6767556,15.4756862 30.2812136,15.2414841 L30.9890256,14.533672 C32.3369915,13.1857061 32.3369915,10.9685897 30.9890256,9.62062381 C30.7288012,9.36039947 30.4269396,9.15221946 30.1146695,8.99608379 C30.7131874,7.7105719 30.5050074,6.1388135 29.4484935,5.08229962 C28.7771133,4.41091942 27.8819393,4.08303557 26.9919694,4.08303557 C26.4715194,4.08303557 25.9666832,4.19232975 25.4930733,4.41612359 C25.336939,4.12467158 25.1547812,3.8280154 24.9101693,3.58340355 C24.2491975,2.92243169 23.3748414,2.59454918 22.4952812,2.58413951 C22.385987,2.17818916 22.219443,1.77744164 21.9540132,1.41833146 C21.386723,0.653269593 20.5487988,0.174455572 19.6640331,0.0443433995 C19.4454447,0.0131170643 19.2216509,-0.00770093655 18.9978571,0.00270739772 Z M19.2476731,2.66741151 C19.4454447,2.69863918 19.6484193,2.81313752 19.7889411,3.00049953 C19.9502809,3.2138837 19.9710989,3.44288171 19.9138491,3.66667556 L12.0030088,11.5775159 L12.0030088,9.99534783 C12.0030088,9.34478563 11.7948288,8.72024561 11.4617407,8.20499975 L18.6647691,2.83395552 C18.8521311,2.69343368 19.0499027,2.63618518 19.2476731,2.66741151 Z M4.71697978,4.77582386 C5.07741773,4.63014107 5.23436066,4.62299653 5.52706142,4.83629946 C5.72219527,4.97850141 5.82453279,5.20337697 5.83407399,5.51092612 L5.34124848,9.99534783 L5.34124848,20.8623443 C5.34124848,21.3463625 5.38288448,21.8251765 5.46615648,22.3196044 L3.5092644,19.6965362 C2.74420253,18.67125 2.57245436,17.3909423 2.75981636,16.0742041 C3.78683774,8.91281178 4.30034843,5.33211563 4.30034843,5.33211563 C4.30034843,5.33211563 4.35654182,4.92150664 4.71697978,4.77582386 Z M22.4536452,5.20720762 C22.6618252,5.20720762 22.8752094,5.29568379 23.0365492,5.45702363 C23.3644331,5.78490748 23.3644331,6.29494784 23.0365492,6.62283168 L16.957693,12.6600519 L18.8313131,14.575308 L26.4090654,6.9975557 C26.7369492,6.66967185 27.2469896,6.66967185 27.5748734,6.9975557 C27.9027573,7.32543955 27.9027573,7.7938439 27.5748734,8.12172775 L19.9971211,15.6994801 L21.8707412,17.5731002 L27.9495975,11.5358799 C28.2774813,11.207996 28.7458857,11.207996 29.0737695,11.5358799 C29.4016533,11.8637637 29.4016533,12.3321681 29.0737695,12.6600519 L26.0759774,15.6994801 L23.0365492,18.7389082 L24.9101693,20.6125283 L27.9495975,17.5731002 C28.3087076,17.21399 28.8603853,17.2296038 29.1986775,17.6980082 C29.4016533,17.984256 29.3131772,18.4995019 28.9904975,18.8221802 L19.9971211,27.8155566 C17.998593,29.8140847 14.7926209,29.8140847 12.7940928,27.8155566 L9.29666865,24.3181324 C8.39108627,23.4125501 8.00595259,22.1946964 8.00595259,20.8623443 L8.00595259,9.99534783 C8.00595259,9.61021548 8.28699627,9.3291718 8.67212862,9.3291718 C9.0572623,9.3291718 9.33830465,9.61021548 9.33830465,9.99534783 L9.33830465,15.4496641 L9.92120867,15.8243881 L9.96284467,15.8660241 L10.8788367,16.4905641 L11.6282847,15.6994801 L21.8707412,5.45702363 C22.032081,5.29568379 22.2454652,5.20720762 22.4536452,5.20720762 Z" id="path-1"></path>
    </defs>
    <g id="Page-1" stroke="none" stroke-width="1" fill="none" fill-rule="evenodd">
        <g id="icon/icon_sucess">
            <mask id="mask-2" fill="white">
                <use xlink:href="#path-1"></use>
            </mask>
            <use id="Shape" fill="#000000" fill-rule="nonzero" xlink:href="#path-1"></use>
        </g>
    </g>
</svg>