<?xml version="1.0" encoding="UTF-8"?>
<svg width="32px" height="32px" viewBox="0 0 32 32" version="1.1" xmlns="http://www.w3.org/2000/svg" xmlns:xlink="http://www.w3.org/1999/xlink">
    <!-- Generator: Sketch 48.2 (47327) - http://www.bohemiancoding.com/sketch -->
    <title>icon/icon_telegram</title>
    <desc>Created with Sketch.</desc>
    <defs></defs>
    <g id="Page-1" stroke="none" stroke-width="1" fill="none" fill-rule="evenodd">
        <g id="icon/icon_telegram" fill="#000000" fill-rule="nonzero">
            <g id="icon_telegram" transform="translate(0.000000, 2.000000)">
                <path d="M29.263287,0.354016634 C28.8548693,0.373012781 28.4701976,0.491738391 28.128267,0.62471141 L28.1235182,0.62471141 C27.7768376,0.762433167 26.1289229,1.45579312 23.6261803,2.5053299 C21.1234377,3.55961663 17.8750967,4.92733916 14.6505006,6.28556304 C8.21080696,8.99726318 1.88034149,11.6662212 1.88034149,11.6662212 L1.95632608,11.6377276 C1.95632608,11.6377276 1.51941471,11.780198 1.0635072,12.0936351 C0.830804712,12.2456042 0.574356129,12.4545618 0.351152322,12.7822451 C0.127947299,13.1099283 -0.0525166989,13.6133267 0.013970421,14.1309714 C0.123198566,15.0095429 0.693082955,15.5366862 1.10149949,15.8263772 C1.51466598,16.1208181 1.90883632,16.2585399 1.90883632,16.2585399 L1.91833379,16.2585399 L7.85463009,18.2578839 C8.12057619,19.1127105 9.66401274,24.1846816 10.034437,25.3529452 C10.2528933,26.0510539 10.4665997,26.4879652 10.7325457,26.8203972 C10.8607699,26.9913625 11.0127391,27.1338342 11.1932019,27.2478111 C11.2644378,27.2905521 11.3404223,27.3237956 11.416407,27.3522893 C11.4401518,27.3665367 11.4638979,27.3712854 11.4923915,27.3760341 L11.4306544,27.361788 C11.4496505,27.3665367 11.4638979,27.3807841 11.4781441,27.3855329 C11.5256351,27.3997803 11.5588786,27.404529 11.6206158,27.4140265 C12.5609244,27.6989687 13.3160216,27.1148381 13.3160216,27.1148381 L13.3587626,27.0815945 L16.8635522,23.8902419 L22.7381101,28.3970773 L22.8710832,28.4540658 C24.0963352,28.9907066 25.3358335,28.6915182 25.9911999,28.1643748 C26.6513163,27.6324828 26.9077649,26.9533702 26.9077649,26.9533702 L26.9505059,26.8441421 L31.4905848,3.58811024 C31.6188092,3.01347711 31.6520515,2.47683629 31.509581,1.95444166 C31.3671093,1.43204824 31.0014338,0.942897167 30.5597737,0.681699853 C30.1133636,0.415753801 29.6717035,0.335020486 29.263287,0.354016634 Z M29.1398115,2.84726053 C29.1350627,2.92324512 29.1493101,2.91374765 29.1160666,3.06096688 L29.1160666,3.07521429 L24.6187287,26.0890461 C24.5997325,26.1222885 24.5664889,26.1935243 24.4762581,26.2647602 C24.3812774,26.3407448 24.3052928,26.3882345 23.9111225,26.2315167 L16.7258305,20.7226342 L12.3852104,24.6785814 L13.2970254,18.8562632 C13.2970254,18.8562632 24.5522427,8.36564166 25.0366438,7.91448289 C25.5210462,7.46332411 25.3595784,7.36834334 25.3595784,7.36834334 C25.3928219,6.81745512 24.6282273,7.20687674 24.6282273,7.20687674 L9.8254794,16.3772654 L9.82073067,16.3535206 L2.72567061,13.9647549 L2.72567061,13.9600061 C2.72092067,13.9600061 2.7114232,13.9552574 2.70667447,13.9552574 C2.7114232,13.9552574 2.74466676,13.94101 2.74466676,13.94101 L2.78265905,13.9220138 L2.82065134,13.9077664 C2.82065134,13.9077664 9.15586554,11.2388085 15.5955592,8.52710827 C18.8201553,7.16888445 22.0684963,5.80116191 24.5664889,4.74687516 C27.0644828,3.69733838 28.9118577,2.92799385 29.0163371,2.88525283 C29.1160666,2.84726053 29.0685756,2.84726053 29.1398115,2.84726053 Z" id="Shape"></path>
            </g>
        </g>
    </g>
</svg>